<svg width="8" height="14" viewBox="0 0 8 14" fill="none" xmlns="http://www.w3.org/2000/svg">
<path fill-rule="evenodd" clip-rule="evenodd" d="M2.47583 12.7401C2.03943 13.1765 1.33189 13.1765 0.895494 12.7401C0.459098 12.3038 0.459097 11.5962 0.895491 11.1598L4.79013 7.26515C4.93658 7.1187 4.93658 6.88126 4.79013 6.73482L0.895492 2.84015C0.459098 2.40375 0.459099 1.69621 0.895495 1.25982C1.33189 0.823422 2.03943 0.82342 2.47583 1.25982L7.4205 6.20449C7.85984 6.64383 7.85984 7.35614 7.4205 7.79548L2.47583 12.7401Z" fill="currentColor"/>
</svg>
