<svg width="11" height="11" viewBox="0 0 11 11" fill="none" xmlns="http://www.w3.org/2000/svg">
<path d="M4.7672 10.406C4.6472 10.406 4.5392 10.364 4.4432 10.28C4.3592 10.184 4.3172 10.076 4.3172 9.956V6.662H1.1132C0.981203 6.662 0.867203 6.62 0.771203 6.536C0.687203 6.452 0.645203 6.344 0.645203 6.212V4.898C0.645203 4.766 0.687203 4.658 0.771203 4.574C0.867203 4.478 0.981203 4.43 1.1132 4.43H4.3172V1.244C4.3172 1.112 4.3592 1.004 4.4432 0.92C4.5392 0.836 4.6472 0.793999 4.7672 0.793999H6.2432C6.3752 0.793999 6.4832 0.836 6.5672 0.92C6.6512 1.004 6.6932 1.112 6.6932 1.244V4.43H9.8792C10.0112 4.43 10.1192 4.478 10.2032 4.574C10.2872 4.658 10.3292 4.766 10.3292 4.898V6.212C10.3292 6.344 10.2872 6.452 10.2032 6.536C10.1192 6.62 10.0112 6.662 9.8792 6.662H6.6932V9.956C6.6932 10.076 6.6512 10.184 6.5672 10.28C6.4832 10.364 6.3752 10.406 6.2432 10.406H4.7672Z" fill="currentColor"/>
</svg>
