<svg width="27" height="27" viewBox="0 0 27 27" fill="none" xmlns="http://www.w3.org/2000/svg">
<path d="M12.1018 26.416C11.7818 26.416 11.5098 26.304 11.2858 26.08C11.0618 25.856 10.9498 25.584 10.9498 25.264V15.904H1.73381C1.41381 15.904 1.14181 15.792 0.917813 15.568C0.693813 15.344 0.581813 15.056 0.581813 14.704V12.208C0.581813 11.856 0.693813 11.584 0.917813 11.392C1.14181 11.168 1.41381 11.056 1.73381 11.056H10.9498V1.936C10.9498 1.584 11.0618 1.312 11.2858 1.12C11.5098 0.895999 11.7818 0.783998 12.1018 0.783998H14.8858C15.2378 0.783998 15.5098 0.895999 15.7018 1.12C15.9258 1.312 16.0378 1.584 16.0378 1.936V11.056H25.2538C25.6058 11.056 25.8778 11.168 26.0698 11.392C26.2938 11.584 26.4058 11.856 26.4058 12.208V14.704C26.4058 15.056 26.2938 15.344 26.0698 15.568C25.8458 15.792 25.5738 15.904 25.2538 15.904H16.0378V25.264C16.0378 25.584 15.9258 25.856 15.7018 26.08C15.5098 26.304 15.2378 26.416 14.8858 26.416H12.1018Z" fill="currentColor"/>
</svg>
